Lab 2: Bike cleaning
…
bike_files<- list.files("../data/BIKES/",pattern=".csv",full=TRUE)
bike_data<-map(bike_files,read_csv)

There are some columns that are entirely NA: get rid of them with select_if

notallNA<-function(x) !all(is.na(x))
bike_data <- map(bike_data, select_if, notallNA)

Now we could try tidying the data

bike_tidy<-map(bike_data, pivot_longer, values_to ="rider_count", names_to ="counter",-Date)
allbikes<-bind_rows(bike_tidy)
allbikes %>% group_by(counter) %>% count() 

## # A tibble: 63 x 2
## # Groups:   counter [63]
##    counter                                         n
##    <chr>                                       <int>
##  1 Archibald Park Cyclists                       366
##  2 Beach Road Cyclists                          1097
##  3 Carlton Gore Cycle Counter Cyclists          1097
##  4 Curran St total                               366
##  5 Curran Street Total                           365
##  6 Curran Street Total Cyclists                  366
##  7 Dominion Road (near View Rd) Total Cyclists   365
##  8 Dominion Road Total Cyclists                  366
##  9 East Coast Road Cyclists                      366
## 10 East_Coast_Road Cyclists                      731
## # ... with 53 more rows
…
